Ng’ara - PCA made easy in R
…
data in PC coordinates.

rotation matrix.

variance explained by each PC.

Data in PC Coordinate

The rotation matrix is stored as dry.pca$rotation, but here we’ll extract it using the tidy() function from broom. When applied to prcomp objects, the tidy() function takes an additional argument matrix, which we set to matrix = "rotation" to extract the rotation matrix.

dry.pca %>%
  broom::tidy(matrix = "rotation")

# A tibble: 49 x 3
   column    PC   value
   <chr>  <dbl>   <dbl>
 1 sst        1 -0.545 
 2 sst        2  0.123 
 3 sst        3 -0.0544
 4 sst        4  0.316 
 5 sst        5  0.146 
 6 sst        6 -0.699 
 7 sst        7 -0.275 
 8 pH         1  0.593 
 9 pH         2 -0.194 
10 pH         3  0.0245
# ... with 39 more rows
…
